192
[ lyr= 1 ,	det= -1 ,	r= 3109.32 - 4551.37 ,	phi= 10.5373 - 34.5248 ,	z= -7124.2 - -7046.6 ,	rob= 0x6c0001 ,	hash= 0x0 ]
[ lyr= 1 ,	det= -1 ,	r= 3109.32 - 4551.37 ,	phi= 10.5373 - 34.5248 ,	z= -7124.2 - -7046.6 ,	rob= 0x6c0101 ,	hash= 0x0 ]
[ lyr= 1 ,	det= -1 ,	r= 3109.32 - 4551.37 ,	phi= 10.5373 - 34.5248 ,	z= -7124.2 - -7046.6 ,	rob= 0x6c0201 ,	hash= 0x0 ]
[ lyr= 1 ,	det= -1 ,	r= 3110.37 - 4552.41 ,	phi= 55.5379 - 79.5174 ,	z= -7127 - -7049.4 ,	rob= 0x6c0003 ,	hash= 0x1 ]
[ lyr= 1 ,	det= -1 ,	r= 3110.37 - 4552.41 ,	phi= 55.5379 - 79.5174 ,	z= -7127 - -7049.4 ,	rob= 0x6c0103 ,	hash= 0x1 ]
[ lyr= 1 ,	det= -1 ,	r= 3110.37 - 4552.41 ,	phi= 55.5379 - 79.5174 ,	z= -7127 - -7049.4 ,	rob= 0x6c0203 ,	hash= 0x1 ]
[ lyr= 1 ,	det= -1 ,	r= 3110.04 - 4552.08 ,	phi= 100.521 - 124.503 ,	z= -7127.67 - -7050.07 ,	rob= 0x6c0005 ,	hash= 0x2 ]
[ lyr= 1 ,	det= -1 ,	r= 3110.04 - 4552.08 ,	phi= 100.521 - 124.503 ,	z= -7127.67 - -7050.07 ,	rob= 0x6c0105 ,	hash= 0x2 ]
[ lyr= 1 ,	det= -1 ,	r= 3110.04 - 4552.08 ,	phi= 100.521 - 124.503 ,	z= -7127.67 - -7050.07 ,	rob= 0x6c0205 ,	hash= 0x2 ]
[ lyr= 1 ,	det= -1 ,	r= 3109.24 - 4551.3 ,	phi= 145.523 - 169.511 ,	z= -7125.81 - -7048.21 ,	rob= 0x6c0007 ,	hash= 0x3 ]
[ lyr= 1 ,	det= -1 ,	r= 3109.24 - 4551.3 ,	phi= 145.523 - 169.511 ,	z= -7125.81 - -7048.21 ,	rob= 0x6c0107 ,	hash= 0x3 ]
[ lyr= 1 ,	det= -1 ,	r= 3109.24 - 4551.3 ,	phi= 145.523 - 169.511 ,	z= -7125.81 - -7048.21 ,	rob= 0x6c0207 ,	hash= 0x3 ]
[ lyr= 1 ,	det= -1 ,	r= 3108.95 - 4551.01 ,	phi= -169.476 - -145.486 ,	z= -7125.31 - -7047.71 ,	rob= 0x6c0009 ,	hash= 0x4 ]
[ lyr= 1 ,	det= -1 ,	r= 3108.95 - 4551.01 ,	phi= -169.476 - -145.486 ,	z= -7125.31 - -7047.71 ,	rob= 0x6c0109 ,	hash= 0x4 ]
[ lyr= 1 ,	det= -1 ,	r= 3108.95 - 4551.01 ,	phi= -169.476 - -145.486 ,	z= -7125.31 - -7047.71 ,	rob= 0x6c0209 ,	hash= 0x4 ]
[ lyr= 1 ,	det= -1 ,	r= 3108.5 - 4550.57 ,	phi= -124.49 - -100.497 ,	z= -7128.06 - -7050.46 ,	rob= 0x6c000b ,	hash= 0x5 ]
[ lyr= 1 ,	det= -1 ,	r= 3108.5 - 4550.57 ,	phi= -124.49 - -100.497 ,	z= -7128.06 - -7050.46 ,	rob= 0x6c010b ,	hash= 0x5 ]
[ lyr= 1 ,	det= -1 ,	r= 3108.5 - 4550.57 ,	phi= -124.49 - -100.497 ,	z= -7128.06 - -7050.46 ,	rob= 0x6c020b ,	hash= 0x5 ]
[ lyr= 1 ,	det= -1 ,	r= 3108.43 - 4550.5 ,	phi= -79.4451 - -55.451 ,	z= -7127.71 - -7050.11 ,	rob= 0x6c000d ,	hash= 0x6 ]
[ lyr= 1 ,	det= -1 ,	r= 3108.43 - 4550.5 ,	phi= -79.4451 - -55.451 ,	z= -7127.71 - -7050.11 ,	rob= 0x6c010d ,	hash= 0x6 ]
[ lyr= 1 ,	det= -1 ,	r= 3108.43 - 4550.5 ,	phi= -79.4451 - -55.451 ,	z= -7127.71 - -7050.11 ,	rob= 0x6c020d ,	hash= 0x6 ]
[ lyr= 1 ,	det= -1 ,	r= 3109.28 - 4551.33 ,	phi= -34.4538 - -10.466 ,	z= -7123.04 - -7045.44 ,	rob= 0x6c000f ,	hash= 0x7 ]
[ lyr= 1 ,	det= -1 ,	r= 3109.28 - 4551.33 ,	phi= -34.4538 - -10.466 ,	z= -7123.04 - -7045.44 ,	rob= 0x6c010f ,	hash= 0x7 ]
[ lyr= 1 ,	det= -1 ,	r= 3109.28 - 4551.33 ,	phi= -34.4538 - -10.466 ,	z= -7123.04 - -7045.44 ,	rob= 0x6c020f ,	hash= 0x7 ]
[ lyr= 1 ,	det= -1 ,	r= 894.422 - 3173.72 ,	phi= 6.93967 - 38.1721 ,	z= -7124.28 - -7046.68 ,	rob= 0x6c0001 ,	hash= 0x8 ]
[ lyr= 1 ,	det= -1 ,	r= 894.422 - 3173.72 ,	phi= 6.93967 - 38.1721 ,	z= -7124.28 - -7046.68 ,	rob= 0x6c0101 ,	hash= 0x8 ]
[ lyr= 1 ,	det= -1 ,	r= 894.422 - 3173.72 ,	phi= 6.93967 - 38.1721 ,	z= -7124.28 - -7046.68 ,	rob= 0x6c0201 ,	hash= 0x8 ]
[ lyr= 1 ,	det= -1 ,	r= 895.625 - 3174.9 ,	phi= 51.9426 - 83.1352 ,	z= -7127.29 - -7049.69 ,	rob= 0x6c0003 ,	hash= 0x9 ]
[ lyr= 1 ,	det= -1 ,	r= 895.625 - 3174.9 ,	phi= 51.9426 - 83.1352 ,	z= -7127.29 - -7049.69 ,	rob= 0x6c0103 ,	hash= 0x9 ]
[ lyr= 1 ,	det= -1 ,	r= 895.625 - 3174.9 ,	phi= 51.9426 - 83.1352 ,	z= -7127.29 - -7049.69 ,	rob= 0x6c0203 ,	hash= 0x9 ]
[ lyr= 1 ,	det= -1 ,	r= 895.444 - 3174.72 ,	phi= 96.9139 - 128.112 ,	z= -7125.92 - -7048.32 ,	rob= 0x6c0005 ,	hash= 0xa ]
[ lyr= 1 ,	det= -1 ,	r= 895.444 - 3174.72 ,	phi= 96.9139 - 128.112 ,	z= -7125.92 - -7048.32 ,	rob= 0x6c0105 ,	hash= 0xa ]
[ lyr= 1 ,	det= -1 ,	r= 895.444 - 3174.72 ,	phi= 96.9139 - 128.112 ,	z= -7125.92 - -7048.32 ,	rob= 0x6c0205 ,	hash= 0xa ]
[ lyr= 1 ,	det= -1 ,	r= 894.444 - 3173.74 ,	phi= 141.891 - 173.123 ,	z= -7126.15 - -7048.55 ,	rob= 0x6c0007 ,	hash= 0xb ]
[ lyr= 1 ,	det= -1 ,	r= 894.444 - 3173.74 ,	phi= 141.891 - 173.123 ,	z= -7126.15 - -7048.55 ,	rob= 0x6c0107 ,	hash= 0xb ]
[ lyr= 1 ,	det= -1 ,	r= 894.444 - 3173.74 ,	phi= 141.891 - 173.123 ,	z= -7126.15 - -7048.55 ,	rob= 0x6c0207 ,	hash= 0xb ]
[ lyr= 1 ,	det= -1 ,	r= 894.218 - 3173.52 ,	phi= -173.106 - -141.866 ,	z= -7126.09 - -7048.49 ,	rob= 0x6c0009 ,	hash= 0xc ]
[ lyr= 1 ,	det= -1 ,	r= 894.218 - 3173.52 ,	phi= -173.106 - -141.866 ,	z= -7126.09 - -7048.49 ,	rob= 0x6c0109 ,	hash= 0xc ]
[ lyr= 1 ,	det= -1 ,	r= 894.218 - 3173.52 ,	phi= -173.106 - -141.866 ,	z= -7126.09 - -7048.49 ,	rob= 0x6c0209 ,	hash= 0xc ]
[ lyr= 1 ,	det= -1 ,	r= 893.673 - 3172.99 ,	phi= -128.126 - -96.8688 ,	z= -7124.97 - -7047.37 ,	rob= 0x6c000b ,	hash= 0xd ]
[ lyr= 1 ,	det= -1 ,	r= 893.673 - 3172.99 ,	phi= -128.126 - -96.8688 ,	z= -7124.97 - -7047.37 ,	rob= 0x6c010b ,	hash= 0xd ]
[ lyr= 1 ,	det= -1 ,	r= 893.673 - 3172.99 ,	phi= -128.126 - -96.8688 ,	z= -7124.97 - -7047.37 ,	rob= 0x6c020b ,	hash= 0xd ]
[ lyr= 1 ,	det= -1 ,	r= 893.568 - 3172.89 ,	phi= -83.0761 - -51.8153 ,	z= -7123.37 - -7045.77 ,	rob= 0x6c000d ,	hash= 0xe ]
[ lyr= 1 ,	det= -1 ,	r= 893.568 - 3172.89 ,	phi= -83.0761 - -51.8153 ,	z= -7123.37 - -7045.77 ,	rob= 0x6c010d ,	hash= 0xe ]
[ lyr= 1 ,	det= -1 ,	r= 893.568 - 3172.89 ,	phi= -83.0761 - -51.8153 ,	z= -7123.37 - -7045.77 ,	rob= 0x6c020d ,	hash= 0xe ]
[ lyr= 1 ,	det= -1 ,	r= 894.335 - 3173.64 ,	phi= -38.0516 - -6.81625 ,	z= -7122.63 - -7045.03 ,	rob= 0x6c000f ,	hash= 0xf ]
[ lyr= 1 ,	det= -1 ,	r= 894.335 - 3173.64 ,	phi= -38.0516 - -6.81625 ,	z= -7122.63 - -7045.03 ,	rob= 0x6c010f ,	hash= 0xf ]
[ lyr= 1 ,	det= -1 ,	r= 894.335 - 3173.64 ,	phi= -38.0516 - -6.81625 ,	z= -7122.63 - -7045.03 ,	rob= 0x6c020f ,	hash= 0xf ]
[ lyr= 1 ,	det= 1 ,	r= 896.204 - 3175.46 ,	phi= 6.88276 - 38.0561 ,	z= 7041.76 - 7119.36 ,	rob= 0x6b0001 ,	hash= 0x10 ]
[ lyr= 1 ,	det= 1 ,	r= 896.204 - 3175.46 ,	phi= 6.88276 - 38.0561 ,	z= 7041.76 - 7119.36 ,	rob= 0x6b0101 ,	hash= 0x10 ]
[ lyr= 1 ,	det= 1 ,	r= 896.204 - 3175.46 ,	phi= 6.88276 - 38.0561 ,	z= 7041.76 - 7119.36 ,	rob= 0x6b0201 ,	hash= 0x10 ]
[ lyr= 1 ,	det= 1 ,	r= 895.084 - 3174.37 ,	phi= 51.862 - 83.0725 ,	z= 7045.47 - 7123.07 ,	rob= 0x6b0003 ,	hash= 0x11 ]
[ lyr= 1 ,	det= 1 ,	r= 895.084 - 3174.37 ,	phi= 51.862 - 83.0725 ,	z= 7045.47 - 7123.07 ,	rob= 0x6b0103 ,	hash= 0x11 ]
[ lyr= 1 ,	det= 1 ,	r= 895.084 - 3174.37 ,	phi= 51.862 - 83.0725 ,	z= 7045.47 - 7123.07 ,	rob= 0x6b0203 ,	hash= 0x11 ]
[ lyr= 1 ,	det= 1 ,	r= 893.725 - 3173.04 ,	phi= 96.8956 - 128.151 ,	z= 7046.29 - 7123.89 ,	rob= 0x6b0005 ,	hash= 0x12 ]
[ lyr= 1 ,	det= 1 ,	r= 893.725 - 3173.04 ,	phi= 96.8956 - 128.151 ,	z= 7046.29 - 7123.89 ,	rob= 0x6b0105 ,	hash= 0x12 ]
[ lyr= 1 ,	det= 1 ,	r= 893.725 - 3173.04 ,	phi= 96.8956 - 128.151 ,	z= 7046.29 - 7123.89 ,	rob= 0x6b0205 ,	hash= 0x12 ]
[ lyr= 1 ,	det= 1 ,	r= 893.275 - 3172.6 ,	phi= 141.845 - 173.115 ,	z= 7043.27 - 7120.87 ,	rob= 0x6b0007 ,	hash= 0x13 ]
[ lyr= 1 ,	det= 1 ,	r= 893.275 - 3172.6 ,	phi= 141.845 - 173.115 ,	z= 7043.27 - 7120.87 ,	rob= 0x6b0107 ,	hash= 0x13 ]
[ lyr= 1 ,	det= 1 ,	r= 893.275 - 3172.6 ,	phi= 141.845 - 173.115 ,	z= 7043.27 - 7120.87 ,	rob= 0x6b0207 ,	hash= 0x13 ]
[ lyr= 1 ,	det= 1 ,	r= 894.123 - 3173.43 ,	phi= -173.11 - -141.867 ,	z= 7040.54 - 7118.14 ,	rob= 0x6b0009 ,	hash= 0x14 ]
[ lyr= 1 ,	det= 1 ,	r= 894.123 - 3173.43 ,	phi= -173.11 - -141.867 ,	z= 7040.54 - 7118.14 ,	rob= 0x6b0109 ,	hash= 0x14 ]
[ lyr= 1 ,	det= 1 ,	r= 894.123 - 3173.43 ,	phi= -173.11 - -141.867 ,	z= 7040.54 - 7118.14 ,	rob= 0x6b0209 ,	hash= 0x14 ]
[ lyr= 1 ,	det= 1 ,	r= 892.67 - 3172.01 ,	phi= -128.06 - -96.7697 ,	z= 7042.67 - 7120.27 ,	rob= 0x6b000b ,	hash= 0x15 ]
[ lyr= 1 ,	det= 1 ,	r= 892.67 - 3172.01 ,	phi= -128.06 - -96.7697 ,	z= 7042.67 - 7120.27 ,	rob= 0x6b010b ,	hash= 0x15 ]
[ lyr= 1 ,	det= 1 ,	r= 892.67 - 3172.01 ,	phi= -128.06 - -96.7697 ,	z= 7042.67 - 7120.27 ,	rob= 0x6b020b ,	hash= 0x15 ]
[ lyr= 1 ,	det= 1 ,	r= 895.959 - 3175.23 ,	phi= -83.0464 - -51.8649 ,	z= 7042.92 - 7120.52 ,	rob= 0x6b000d ,	hash= 0x16 ]
[ lyr= 1 ,	det= 1 ,	r= 895.959 - 3175.23 ,	phi= -83.0464 - -51.8649 ,	z= 7042.92 - 7120.52 ,	rob= 0x6b010d ,	hash= 0x16 ]
[ lyr= 1 ,	det= 1 ,	r= 895.959 - 3175.23 ,	phi= -83.0464 - -51.8649 ,	z= 7042.92 - 7120.52 ,	rob= 0x6b020d ,	hash= 0x16 ]
[ lyr= 1 ,	det= 1 ,	r= 895.97 - 3175.24 ,	phi= -38.0653 - -6.88417 ,	z= 7041.09 - 7118.69 ,	rob= 0x6b000f ,	hash= 0x17 ]
[ lyr= 1 ,	det= 1 ,	r= 895.97 - 3175.24 ,	phi= -38.0653 - -6.88417 ,	z= 7041.09 - 7118.69 ,	rob= 0x6b010f ,	hash= 0x17 ]
[ lyr= 1 ,	det= 1 ,	r= 895.97 - 3175.24 ,	phi= -38.0653 - -6.88417 ,	z= 7041.09 - 7118.69 ,	rob= 0x6b020f ,	hash= 0x17 ]
[ lyr= 1 ,	det= 1 ,	r= 3110.91 - 4552.93 ,	phi= 10.5313 - 34.5068 ,	z= 7044.55 - 7122.15 ,	rob= 0x6b0001 ,	hash= 0x18 ]
[ lyr= 1 ,	det= 1 ,	r= 3110.91 - 4552.93 ,	phi= 10.5313 - 34.5068 ,	z= 7044.55 - 7122.15 ,	rob= 0x6b0101 ,	hash= 0x18 ]
[ lyr= 1 ,	det= 1 ,	r= 3110.91 - 4552.93 ,	phi= 10.5313 - 34.5068 ,	z= 7044.55 - 7122.15 ,	rob= 0x6b0201 ,	hash= 0x18 ]
[ lyr= 1 ,	det= 1 ,	r= 3109.72 - 4551.76 ,	phi= 55.4929 - 79.4773 ,	z= 7048.33 - 7125.93 ,	rob= 0x6b0003 ,	hash= 0x19 ]
[ lyr= 1 ,	det= 1 ,	r= 3109.72 - 4551.76 ,	phi= 55.4929 - 79.4773 ,	z= 7048.33 - 7125.93 ,	rob= 0x6b0103 ,	hash= 0x19 ]
[ lyr= 1 ,	det= 1 ,	r= 3109.72 - 4551.76 ,	phi= 55.4929 - 79.4773 ,	z= 7048.33 - 7125.93 ,	rob= 0x6b0203 ,	hash= 0x19 ]
[ lyr= 1 ,	det= 1 ,	r= 3108.35 - 4550.42 ,	phi= 100.515 - 124.51 ,	z= 7048.88 - 7126.48 ,	rob= 0x6b0005 ,	hash= 0x1a ]
[ lyr= 1 ,	det= 1 ,	r= 3108.35 - 4550.42 ,	phi= 100.515 - 124.51 ,	z= 7048.88 - 7126.48 ,	rob= 0x6b0105 ,	hash= 0x1a ]
[ lyr= 1 ,	det= 1 ,	r= 3108.35 - 4550.42 ,	phi= 100.515 - 124.51 ,	z= 7048.88 - 7126.48 ,	rob= 0x6b0205 ,	hash= 0x1a ]
[ lyr= 1 ,	det= 1 ,	r= 3107.98 - 4550.06 ,	phi= 145.509 - 169.506 ,	z= 7044.54 - 7122.14 ,	rob= 0x6b0007 ,	hash= 0x1b ]
[ lyr= 1 ,	det= 1 ,	r= 3107.98 - 4550.06 ,	phi= 145.509 - 169.506 ,	z= 7044.54 - 7122.14 ,	rob= 0x6b0107 ,	hash= 0x1b ]
[ lyr= 1 ,	det= 1 ,	r= 3107.98 - 4550.06 ,	phi= 145.509 - 169.506 ,	z= 7044.54 - 7122.14 ,	rob= 0x6b0207 ,	hash= 0x1b ]
[ lyr= 1 ,	det= 1 ,	r= 3108.81 - 4550.88 ,	phi= -169.478 - -145.487 ,	z= 7037.43 - 7115.03 ,	rob= 0x6b0009 ,	hash= 0x1c ]
[ lyr= 1 ,	det= 1 ,	r= 3108.81 - 4550.88 ,	phi= -169.478 - -145.487 ,	z= 7037.43 - 7115.03 ,	rob= 0x6b0109 ,	hash= 0x1c ]
[ lyr= 1 ,	det= 1 ,	r= 3108.81 - 4550.88 ,	phi= -169.478 - -145.487 ,	z= 7037.43 - 7115.03 ,	rob= 0x6b0209 ,	hash= 0x1c ]
[ lyr= 1 ,	det= 1 ,	r= 3107.41 - 4549.5 ,	phi= -124.469 - -100.467 ,	z= 7043.77 - 7121.37 ,	rob= 0x6b000b ,	hash= 0x1d ]
[ lyr= 1 ,	det= 1 ,	r= 3107.41 - 4549.5 ,	phi= -124.469 - -100.467 ,	z= 7043.77 - 7121.37 ,	rob= 0x6b010b ,	hash= 0x1d ]
[ lyr= 1 ,	det= 1 ,	r= 3107.41 - 4549.5 ,	phi= -124.469 - -100.467 ,	z= 7043.77 - 7121.37 ,	rob= 0x6b020b ,	hash= 0x1d ]
[ lyr= 1 ,	det= 1 ,	r= 3110.28 - 4552.31 ,	phi= -79.4507 - -55.4705 ,	z= 7044.11 - 7121.71 ,	rob= 0x6b000d ,	hash= 0x1e ]
[ lyr= 1 ,	det= 1 ,	r= 3110.28 - 4552.31 ,	phi= -79.4507 - -55.4705 ,	z= 7044.11 - 7121.71 ,	rob= 0x6b010d ,	hash= 0x1e ]
[ lyr= 1 ,	det= 1 ,	r= 3110.28 - 4552.31 ,	phi= -79.4507 - -55.4705 ,	z= 7044.11 - 7121.71 ,	rob= 0x6b020d ,	hash= 0x1e ]
[ lyr= 1 ,	det= 1 ,	r= 3110.48 - 4552.51 ,	phi= -34.4571 - -10.4784 ,	z= 7038.03 - 7115.63 ,	rob= 0x6b000f ,	hash= 0x1f ]
[ lyr= 1 ,	det= 1 ,	r= 3110.48 - 4552.51 ,	phi= -34.4571 - -10.4784 ,	z= 7038.03 - 7115.63 ,	rob= 0x6b010f ,	hash= 0x1f ]
[ lyr= 1 ,	det= 1 ,	r= 3110.48 - 4552.51 ,	phi= -34.4571 - -10.4784 ,	z= 7038.03 - 7115.63 ,	rob= 0x6b020f ,	hash= 0x1f ]
[ lyr= 1 ,	det= -1 ,	r= 3236.14 - 4776.9 ,	phi= -17.3596 - 17.3519 ,	z= -7589.74 - -7512.14 ,	rob= 0x6c0000 ,	hash= 0x20 ]
[ lyr= 1 ,	det= -1 ,	r= 3236.14 - 4776.9 ,	phi= -17.3596 - 17.3519 ,	z= -7589.74 - -7512.14 ,	rob= 0x6c0100 ,	hash= 0x20 ]
[ lyr= 1 ,	det= -1 ,	r= 3236.14 - 4776.9 ,	phi= -17.3596 - 17.3519 ,	z= -7589.74 - -7512.14 ,	rob= 0x6c0200 ,	hash= 0x20 ]
[ lyr= 1 ,	det= -1 ,	r= 3237.66 - 4778.37 ,	phi= 27.6719 - 62.3681 ,	z= -7590.99 - -7513.39 ,	rob= 0x6c0002 ,	hash= 0x21 ]
[ lyr= 1 ,	det= -1 ,	r= 3237.66 - 4778.37 ,	phi= 27.6719 - 62.3681 ,	z= -7590.99 - -7513.39 ,	rob= 0x6c0102 ,	hash= 0x21 ]
[ lyr= 1 ,	det= -1 ,	r= 3237.66 - 4778.37 ,	phi= 27.6719 - 62.3681 ,	z= -7590.99 - -7513.39 ,	rob= 0x6c0202 ,	hash= 0x21 ]
[ lyr= 1 ,	det= -1 ,	r= 3239 - 4779.67 ,	phi= 72.6755 - 107.358 ,	z= -7591.32 - -7513.72 ,	rob= 0x6c0004 ,	hash= 0x22 ]
[ lyr= 1 ,	det= -1 ,	r= 3239 - 4779.67 ,	phi= 72.6755 - 107.358 ,	z= -7591.32 - -7513.72 ,	rob= 0x6c0104 ,	hash= 0x22 ]
[ lyr= 1 ,	det= -1 ,	r= 3239 - 4779.67 ,	phi= 72.6755 - 107.358 ,	z= -7591.32 - -7513.72 ,	rob= 0x6c0204 ,	hash= 0x22 ]
[ lyr= 1 ,	det= -1 ,	r= 3237.59 - 4778.3 ,	phi= 117.662 - 152.359 ,	z= -7591.44 - -7513.84 ,	rob= 0x6c0006 ,	hash= 0x23 ]
[ lyr= 1 ,	det= -1 ,	r= 3237.59 - 4778.3 ,	phi= 117.662 - 152.359 ,	z= -7591.44 - -7513.84 ,	rob= 0x6c0106 ,	hash= 0x23 ]
[ lyr= 1 ,	det= -1 ,	r= 3237.59 - 4778.3 ,	phi= 117.662 - 152.359 ,	z= -7591.44 - -7513.84 ,	rob= 0x6c0206 ,	hash= 0x23 ]
[ lyr= 1 ,	det= -1 ,	r= 3237.17 - 4777.9 ,	phi= 162.672 - -162.627 ,	z= -7590.25 - -7512.65 ,	rob= 0x6c0008 ,	hash= 0x24 ]
[ lyr= 1 ,	det= -1 ,	r= 3237.17 - 4777.9 ,	phi= 162.672 - -162.627 ,	z= -7590.25 - -7512.65 ,	rob= 0x6c0108 ,	hash= 0x24 ]
[ lyr= 1 ,	det= -1 ,	r= 3237.17 - 4777.9 ,	phi= 162.672 - -162.627 ,	z= -7590.25 - -7512.65 ,	rob= 0x6c0208 ,	hash= 0x24 ]
[ lyr= 1 ,	det= -1 ,	r= 3237.22 - 4777.95 ,	phi= -152.341 - -117.64 ,	z= -7591.25 - -7513.65 ,	rob= 0x6c000a ,	hash= 0x25 ]
[ lyr= 1 ,	det= -1 ,	r= 3237.22 - 4777.95 ,	phi= -152.341 - -117.64 ,	z= -7591.25 - -7513.65 ,	rob= 0x6c010a ,	hash= 0x25 ]
[ lyr= 1 ,	det= -1 ,	r= 3237.22 - 4777.95 ,	phi= -152.341 - -117.64 ,	z= -7591.25 - -7513.65 ,	rob= 0x6c020a ,	hash= 0x25 ]
[ lyr= 1 ,	det= -1 ,	r= 3234.83 - 4775.62 ,	phi= -107.366 - -72.6415 ,	z= -7591.99 - -7514.39 ,	rob= 0x6c000c ,	hash= 0x26 ]
[ lyr= 1 ,	det= -1 ,	r= 3234.83 - 4775.62 ,	phi= -107.366 - -72.6415 ,	z= -7591.99 - -7514.39 ,	rob= 0x6c010c ,	hash= 0x26 ]
[ lyr= 1 ,	det= -1 ,	r= 3234.83 - 4775.62 ,	phi= -107.366 - -72.6415 ,	z= -7591.99 - -7514.39 ,	rob= 0x6c020c ,	hash= 0x26 ]
[ lyr= 1 ,	det= -1 ,	r= 3236.97 - 4777.7 ,	phi= -62.3013 - -27.5981 ,	z= -7592.82 - -7515.22 ,	rob= 0x6c000e ,	hash= 0x27 ]
[ lyr= 1 ,	det= -1 ,	r= 3236.97 - 4777.7 ,	phi= -62.3013 - -27.5981 ,	z= -7592.82 - -7515.22 ,	rob= 0x6c010e ,	hash= 0x27 ]
[ lyr= 1 ,	det= -1 ,	r= 3236.97 - 4777.7 ,	phi= -62.3013 - -27.5981 ,	z= -7592.82 - -7515.22 ,	rob= 0x6c020e ,	hash= 0x27 ]
[ lyr= 1 ,	det= -1 ,	r= 921.386 - 3383.84 ,	phi= -19.1139 - 19.1907 ,	z= -7589.88 - -7512.28 ,	rob= 0x6c0000 ,	hash= 0x28 ]
[ lyr= 1 ,	det= -1 ,	r= 921.386 - 3383.84 ,	phi= -19.1139 - 19.1907 ,	z= -7589.88 - -7512.28 ,	rob= 0x6c0100 ,	hash= 0x28 ]
[ lyr= 1 ,	det= -1 ,	r= 921.386 - 3383.84 ,	phi= -19.1139 - 19.1907 ,	z= -7589.88 - -7512.28 ,	rob= 0x6c0200 ,	hash= 0x28 ]
[ lyr= 1 ,	det= -1 ,	r= 923.052 - 3385.43 ,	phi= 25.8989 - 64.1393 ,	z= -7589.43 - -7511.83 ,	rob= 0x6c0002 ,	hash= 0x29 ]
[ lyr= 1 ,	det= -1 ,	r= 923.052 - 3385.43 ,	phi= 25.8989 - 64.1393 ,	z= -7589.43 - -7511.83 ,	rob= 0x6c0102 ,	hash= 0x29 ]
[ lyr= 1 ,	det= -1 ,	r= 923.052 - 3385.43 ,	phi= 25.8989 - 64.1393 ,	z= -7589.43 - -7511.83 ,	rob= 0x6c0202 ,	hash= 0x29 ]
[ lyr= 1 ,	det= -1 ,	r= 924.161 - 3386.49 ,	phi= 70.9063 - 109.104 ,	z= -7589.96 - -7512.36 ,	rob= 0x6c0004 ,	hash= 0x2a ]
[ lyr= 1 ,	det= -1 ,	r= 924.161 - 3386.49 ,	phi= 70.9063 - 109.104 ,	z= -7589.96 - -7512.36 ,	rob= 0x6c0104 ,	hash= 0x2a ]
[ lyr= 1 ,	det= -1 ,	r= 924.161 - 3386.49 ,	phi= 70.9063 - 109.104 ,	z= -7589.96 - -7512.36 ,	rob= 0x6c0204 ,	hash= 0x2a ]
[ lyr= 1 ,	det= -1 ,	r= 922.926 - 3385.31 ,	phi= 115.875 - 154.12 ,	z= -7590.41 - -7512.81 ,	rob= 0x6c0006 ,	hash= 0x2b ]
[ lyr= 1 ,	det= -1 ,	r= 922.926 - 3385.31 ,	phi= 115.875 - 154.12 ,	z= -7590.41 - -7512.81 ,	rob= 0x6c0106 ,	hash= 0x2b ]
[ lyr= 1 ,	det= -1 ,	r= 922.926 - 3385.31 ,	phi= 115.875 - 154.12 ,	z= -7590.41 - -7512.81 ,	rob= 0x6c0206 ,	hash= 0x2b ]
[ lyr= 1 ,	det= -1 ,	r= 922.262 - 3384.68 ,	phi= 160.852 - -160.878 ,	z= -7589.98 - -7512.38 ,	rob= 0x6c0008 ,	hash= 0x2c ]
[ lyr= 1 ,	det= -1 ,	r= 922.262 - 3384.68 ,	phi= 160.852 - -160.878 ,	z= -7589.98 - -7512.38 ,	rob= 0x6c0108 ,	hash= 0x2c ]
[ lyr= 1 ,	det= -1 ,	r= 922.262 - 3384.68 ,	phi= 160.852 - -160.878 ,	z= -7589.98 - -7512.38 ,	rob= 0x6c0208 ,	hash= 0x2c ]
[ lyr= 1 ,	det= -1 ,	r= 922.296 - 3384.71 ,	phi= -154.133 - -115.864 ,	z= -7589.44 - -7511.84 ,	rob= 0x6c000a ,	hash= 0x2d ]
[ lyr= 1 ,	det= -1 ,	r= 922.296 - 3384.71 ,	phi= -154.133 - -115.864 ,	z= -7589.44 - -7511.84 ,	rob= 0x6c010a ,	hash= 0x2d ]
[ lyr= 1 ,	det= -1 ,	r= 922.296 - 3384.71 ,	phi= -154.133 - -115.864 ,	z= -7589.44 - -7511.84 ,	rob= 0x6c020a ,	hash= 0x2d ]
[ lyr= 1 ,	det= -1 ,	r= 919.964 - 3382.48 ,	phi= -109.201 - -70.8419 ,	z= -7589.59 - -7511.99 ,	rob= 0x6c000c ,	hash= 0x2e ]
[ lyr= 1 ,	det= -1 ,	r= 919.964 - 3382.48 ,	phi= -109.201 - -70.8419 ,	z= -7589.59 - -7511.99 ,	rob= 0x6c010c ,	hash= 0x2e ]
[ lyr= 1 ,	det= -1 ,	r= 919.964 - 3382.48 ,	phi= -109.201 - -70.8419 ,	z= -7589.59 - -7511.99 ,	rob= 0x6c020c ,	hash= 0x2e ]
[ lyr= 1 ,	det= -1 ,	r= 922.46 - 3384.87 ,	phi= -64.0786 - -25.8154 ,	z= -7590.32 - -7512.72 ,	rob= 0x6c000e ,	hash= 0x2f ]
[ lyr= 1 ,	det= -1 ,	r= 922.46 - 3384.87 ,	phi= -64.0786 - -25.8154 ,	z= -7590.32 - -7512.72 ,	rob= 0x6c010e ,	hash= 0x2f ]
[ lyr= 1 ,	det= -1 ,	r= 922.46 - 3384.87 ,	phi= -64.0786 - -25.8154 ,	z= -7590.32 - -7512.72 ,	rob= 0x6c020e ,	hash= 0x2f ]
[ lyr= 1 ,	det= 1 ,	r= 922.277 - 3384.69 ,	phi= -19.1488 - 19.1214 ,	z= 7508.89 - 7586.49 ,	rob= 0x6b0000 ,	hash= 0x30 ]
[ lyr= 1 ,	det= 1 ,	r= 922.277 - 3384.69 ,	phi= -19.1488 - 19.1214 ,	z= 7508.89 - 7586.49 ,	rob= 0x6b0100 ,	hash= 0x30 ]
[ lyr= 1 ,	det= 1 ,	r= 922.277 - 3384.69 ,	phi= -19.1488 - 19.1214 ,	z= 7508.89 - 7586.49 ,	rob= 0x6b0200 ,	hash= 0x30 ]
[ lyr= 1 ,	det= 1 ,	r= 921.54 - 3383.99 ,	phi= 25.7993 - 64.0979 ,	z= 7509.58 - 7587.18 ,	rob= 0x6b0002 ,	hash= 0x31 ]
[ lyr= 1 ,	det= 1 ,	r= 921.54 - 3383.99 ,	phi= 25.7993 - 64.0979 ,	z= 7509.58 - 7587.18 ,	rob= 0x6b0102 ,	hash= 0x31 ]
[ lyr= 1 ,	det= 1 ,	r= 921.54 - 3383.99 ,	phi= 25.7993 - 64.0979 ,	z= 7509.58 - 7587.18 ,	rob= 0x6b0202 ,	hash= 0x31 ]
[ lyr= 1 ,	det= 1 ,	r= 922.017 - 3384.44 ,	phi= 70.8244 - 109.105 ,	z= 7509.55 - 7587.15 ,	rob= 0x6b0004 ,	hash= 0x32 ]
[ lyr= 1 ,	det= 1 ,	r= 922.017 - 3384.44 ,	phi= 70.8244 - 109.105 ,	z= 7509.55 - 7587.15 ,	rob= 0x6b0104 ,	hash= 0x32 ]
[ lyr= 1 ,	det= 1 ,	r= 922.017 - 3384.44 ,	phi= 70.8244 - 109.105 ,	z= 7509.55 - 7587.15 ,	rob= 0x6b0204 ,	hash= 0x32 ]
[ lyr= 1 ,	det= 1 ,	r= 921.326 - 3383.78 ,	phi= 115.878 - 154.184 ,	z= 7508.6 - 7586.2 ,	rob= 0x6b0006 ,	hash= 0x33 ]
[ lyr= 1 ,	det= 1 ,	r= 921.326 - 3383.78 ,	phi= 115.878 - 154.184 ,	z= 7508.6 - 7586.2 ,	rob= 0x6b0106 ,	hash= 0x33 ]
[ lyr= 1 ,	det= 1 ,	r= 921.326 - 3383.78 ,	phi= 115.878 - 154.184 ,	z= 7508.6 - 7586.2 ,	rob= 0x6b0206 ,	hash= 0x33 ]
[ lyr= 1 ,	det= 1 ,	r= 922.605 - 3385 ,	phi= 160.882 - -160.86 ,	z= 7508.39 - 7585.99 ,	rob= 0x6b0008 ,	hash= 0x34 ]
[ lyr= 1 ,	det= 1 ,	r= 922.605 - 3385 ,	phi= 160.882 - -160.86 ,	z= 7508.39 - 7585.99 ,	rob= 0x6b0108 ,	hash= 0x34 ]
[ lyr= 1 ,	det= 1 ,	r= 922.605 - 3385 ,	phi= 160.882 - -160.86 ,	z= 7508.39 - 7585.99 ,	rob= 0x6b0208 ,	hash= 0x34 ]
[ lyr= 1 ,	det= 1 ,	r= 922.101 - 3384.52 ,	phi= -154.154 - -115.877 ,	z= 7509.93 - 7587.53 ,	rob= 0x6b000a ,	hash= 0x35 ]
[ lyr= 1 ,	det= 1 ,	r= 922.101 - 3384.52 ,	phi= -154.154 - -115.877 ,	z= 7509.93 - 7587.53 ,	rob= 0x6b010a ,	hash= 0x35 ]
[ lyr= 1 ,	det= 1 ,	r= 922.101 - 3384.52 ,	phi= -154.154 - -115.877 ,	z= 7509.93 - 7587.53 ,	rob= 0x6b020a ,	hash= 0x35 ]
[ lyr= 1 ,	det= 1 ,	r= 920.841 - 3383.32 ,	phi= -109.233 - -70.9077 ,	z= 7505.99 - 7583.59 ,	rob= 0x6b000c ,	hash= 0x36 ]
[ lyr= 1 ,	det= 1 ,	r= 920.841 - 3383.32 ,	phi= -109.233 - -70.9077 ,	z= 7505.99 - 7583.59 ,	rob= 0x6b010c ,	hash= 0x36 ]
[ lyr= 1 ,	det= 1 ,	r= 920.841 - 3383.32 ,	phi= -109.233 - -70.9077 ,	z= 7505.99 - 7583.59 ,	rob= 0x6b020c ,	hash= 0x36 ]
[ lyr= 1 ,	det= 1 ,	r= 923.522 - 3385.88 ,	phi= -64.0896 - -25.8672 ,	z= 7508.04 - 7585.64 ,	rob= 0x6b000e ,	hash= 0x37 ]
[ lyr= 1 ,	det= 1 ,	r= 923.522 - 3385.88 ,	phi= -64.0896 - -25.8672 ,	z= 7508.04 - 7585.64 ,	rob= 0x6b010e ,	hash= 0x37 ]
[ lyr= 1 ,	det= 1 ,	r= 923.522 - 3385.88 ,	phi= -64.0896 - -25.8672 ,	z= 7508.04 - 7585.64 ,	rob= 0x6b020e ,	hash= 0x37 ]
[ lyr= 1 ,	det= 1 ,	r= 3237.23 - 4777.95 ,	phi= -17.3854 - 17.3151 ,	z= 7505.14 - 7582.74 ,	rob= 0x6b0000 ,	hash= 0x38 ]
[ lyr= 1 ,	det= 1 ,	r= 3237.23 - 4777.95 ,	phi= -17.3854 - 17.3151 ,	z= 7505.14 - 7582.74 ,	rob= 0x6b0100 ,	hash= 0x38 ]
[ lyr= 1 ,	det= 1 ,	r= 3237.23 - 4777.95 ,	phi= -17.3854 - 17.3151 ,	z= 7505.14 - 7582.74 ,	rob= 0x6b0200 ,	hash= 0x38 ]
[ lyr= 1 ,	det= 1 ,	r= 3236.37 - 4777.12 ,	phi= 27.633 - 62.3421 ,	z= 7510.08 - 7587.68 ,	rob= 0x6b0002 ,	hash= 0x39 ]
[ lyr= 1 ,	det= 1 ,	r= 3236.37 - 4777.12 ,	phi= 27.633 - 62.3421 ,	z= 7510.08 - 7587.68 ,	rob= 0x6b0102 ,	hash= 0x39 ]
[ lyr= 1 ,	det= 1 ,	r= 3236.37 - 4777.12 ,	phi= 27.633 - 62.3421 ,	z= 7510.08 - 7587.68 ,	rob= 0x6b0202 ,	hash= 0x39 ]
[ lyr= 1 ,	det= 1 ,	r= 3236.98 - 4777.71 ,	phi= 72.6277 - 107.331 ,	z= 7509.72 - 7587.32 ,	rob= 0x6b0004 ,	hash= 0x3a ]
[ lyr= 1 ,	det= 1 ,	r= 3236.98 - 4777.71 ,	phi= 72.6277 - 107.331 ,	z= 7509.72 - 7587.32 ,	rob= 0x6b0104 ,	hash= 0x3a ]
[ lyr= 1 ,	det= 1 ,	r= 3236.98 - 4777.71 ,	phi= 72.6277 - 107.331 ,	z= 7509.72 - 7587.32 ,	rob= 0x6b0204 ,	hash= 0x3a ]
[ lyr= 1 ,	det= 1 ,	r= 3236.26 - 4777.01 ,	phi= 117.663 - 152.373 ,	z= 7509.32 - 7586.92 ,	rob= 0x6b0006 ,	hash= 0x3b ]
[ lyr= 1 ,	det= 1 ,	r= 3236.26 - 4777.01 ,	phi= 117.663 - 152.373 ,	z= 7509.32 - 7586.92 ,	rob= 0x6b0106 ,	hash= 0x3b ]
[ lyr= 1 ,	det= 1 ,	r= 3236.26 - 4777.01 ,	phi= 117.663 - 152.373 ,	z= 7509.32 - 7586.92 ,	rob= 0x6b0206 ,	hash= 0x3b ]
[ lyr= 1 ,	det= 1 ,	r= 3236.9 - 4777.63 ,	phi= 162.692 - -162.604 ,	z= 7507.51 - 7585.11 ,	rob= 0x6b0008 ,	hash= 0x3c ]
[ lyr= 1 ,	det= 1 ,	r= 3236.9 - 4777.63 ,	phi= 162.692 - -162.604 ,	z= 7507.51 - 7585.11 ,	rob= 0x6b0108 ,	hash= 0x3c ]
[ lyr= 1 ,	det= 1 ,	r= 3236.9 - 4777.63 ,	phi= 162.692 - -162.604 ,	z= 7507.51 - 7585.11 ,	rob= 0x6b0208 ,	hash= 0x3c ]
[ lyr= 1 ,	det= 1 ,	r= 3237.11 - 4777.84 ,	phi= -152.344 - -117.642 ,	z= 7507.11 - 7584.71 ,	rob= 0x6b000a ,	hash= 0x3d ]
[ lyr= 1 ,	det= 1 ,	r= 3237.11 - 4777.84 ,	phi= -152.344 - -117.642 ,	z= 7507.11 - 7584.71 ,	rob= 0x6b010a ,	hash= 0x3d ]
[ lyr= 1 ,	det= 1 ,	r= 3237.11 - 4777.84 ,	phi= -152.344 - -117.642 ,	z= 7507.11 - 7584.71 ,	rob= 0x6b020a ,	hash= 0x3d ]
[ lyr= 1 ,	det= 1 ,	r= 3235.55 - 4776.32 ,	phi= -107.39 - -72.6726 ,	z= 7508.41 - 7586.01 ,	rob= 0x6b000c ,	hash= 0x3e ]
[ lyr= 1 ,	det= 1 ,	r= 3235.55 - 4776.32 ,	phi= -107.39 - -72.6726 ,	z= 7508.41 - 7586.01 ,	rob= 0x6b010c ,	hash= 0x3e ]
[ lyr= 1 ,	det= 1 ,	r= 3235.55 - 4776.32 ,	phi= -107.39 - -72.6726 ,	z= 7508.41 - 7586.01 ,	rob= 0x6b020c ,	hash= 0x3e ]
[ lyr= 1 ,	det= 1 ,	r= 3238.11 - 4778.81 ,	phi= -62.3143 - -27.6226 ,	z= 7508.82 - 7586.42 ,	rob= 0x6b000e ,	hash= 0x3f ]
[ lyr= 1 ,	det= 1 ,	r= 3238.11 - 4778.81 ,	phi= -62.3143 - -27.6226 ,	z= 7508.82 - 7586.42 ,	rob= 0x6b010e ,	hash= 0x3f ]
[ lyr= 1 ,	det= 1 ,	r= 3238.11 - 4778.81 ,	phi= -62.3143 - -27.6226 ,	z= 7508.82 - 7586.42 ,	rob= 0x6b020e ,	hash= 0x3f ]
